{
    "profiles": {
        "profile1":{
            "address":"paris",
            "bio":"bio"
        },
        "profile2":{
            "address":"london",
            "bio":"bio2"
        }
    },
    "profiles_list": {
        "profile1":{
            "id": 1,
            "address":"paris",
            "bio":"bio",
            "user_id": 1
        },
        "profile2":{
            "id": 2,
            "address":"london",
            "bio":"bio2",
            "user_id": 2
        }
    }
}